Had1
0.382
Exp
Had2
-0.643 
PowerLaw1
Had3
-0.553
PowerLaw1
Had4
-0.364
PowerLaw1
Had5
-0.95
PowerLaw1
Had6
-1.34
PowerLaw1
Had7
2.22
Exp
Had8
0.772
Exp
Had9
-3.63
PowerLaw1
Lep1
-0.167
Powerlaw 1
Lep2
-0.115
Powerlaw 1
Lep3
-0.268
Powerlaw 1
Lep4
-0.28
Powerlaw 1
Lep5
-0.153
Powerlaw 1
Lep6
-0.558
Powerlaw 1
